<?xml version="1.0" ?>

<robot name="button_pressing_robot" xmlns:xacro="http://www.ros.org/wiki/xacro">

    <xacro:include filename = "$(find bpr_description)/urdf/links_joints.xacro" />

    <!-- Robot Description -->
    <x_link_box name = "base_link"
        mass = "1000"
        ixx = "1" ixy = "1" ixz = "1"
        iyy = "1" iyz = "1"
        izz = "1" 
        origin_rpy = "0 0 0" 
        origin_xyz = "0 0 0" 
        size = "0.5 0.5 0.5"/>

    <gazebo reference="base_link">
        <static>true</static>
    </gazebo>

    <x_joint name = "joint1"
        type = "revolute" axis_xyz = "0 0 1"
        origin_rpy = "0 0 0" origin_xyz = "0 0 0.25"
        parent = "base_link" child = "link_1"/>

    <transmission name="trans_joint1">
        <type>transmission_interface/SimpleTransmission</type>
        <joint name="joint1">
            <hardwareInterface>hardware_interface/EffortJointInterface</hardwareInterface>
         </joint>
        <actuator name="motor_joint1">
            <hardwareInterface>hardware_interface/EffortJointInterface</hardwareInterface>
            <mechanicalReduction>1</mechanicalReduction>
        </actuator>
    </transmission>

    <x_link_cylinder name = "link_1" 
        origin_rpy = "0 0 0" origin_xyz = "0 0 0.5" 
        mass="1"
        ixx="1" ixy="0" ixz="0"
        iyy="1" iyz="0"
        izz="1"
        radius = "0.1" length = "1" />

    <x_joint name = "joint2"
        type = "revolute" axis_xyz = "0 1 0"
        origin_rpy = "0 0 0" origin_xyz = "0 0 1"
        parent = "link_1" child = "link_2"/>


    <transmission name="trans_joint2">
        <type>transmission_interface/SimpleTransmission</type>
        <joint name="joint2">
            <hardwareInterface>hardware_interface/EffortJointInterface</hardwareInterface>
         </joint>
        <actuator name="motor_joint2">
            <hardwareInterface>hardware_interface/EffortJointInterface</hardwareInterface>
            <mechanicalReduction>1</mechanicalReduction>
        </actuator>
    </transmission>

    <x_link_cylinder name = "link_2" 
        origin_rpy = "0 0 0" origin_xyz = "0 0 0.5" 
        mass="1"
        ixx="1" ixy="0" ixz="0"
        iyy="1" iyz="0"
        izz="1"
        radius = "0.1" length = "1" />

    <x_joint name = "joint3"
        type = "revolute" axis_xyz = "0 1 0"
        origin_rpy = "0 2.4 0" origin_xyz = "0 0 1"
        parent = "link_2" child = "link_3"/>


    <transmission name="trans_joint3">
        <type>transmission_interface/SimpleTransmission</type>
        <joint name="joint3">
            <hardwareInterface>hardware_interface/EffortJointInterface</hardwareInterface>
         </joint>
        <actuator name="motor_joint3">
            <hardwareInterface>hardware_interface/EffortJointInterface</hardwareInterface>
            <mechanicalReduction>1</mechanicalReduction>
        </actuator>
    </transmission>

    <x_link_cylinder name = "link_3" 
        origin_rpy = "0 0 0" origin_xyz = "0 0 0.5" 
        mass="1"
        ixx="1" ixy="0" ixz="0"
        iyy="1" iyz="0"
        izz="1"
        radius = "0.1" length = "1" />


    <gazebo>
        <plugin name = "gazebo_ros_control" filename = "libgazebo_ros_control.so">
        </plugin>
    </gazebo>


    <xacro:property name="camera_size" value="0.05" /> <!-- Size of square 'camera' box -->
    <xacro:property name="camera_origin_x" value="0" />
    <xacro:property name="camera_origin_y" value="0" />
    <xacro:property name="camera_origin_z" value="0" />
    <xacro:include filename="$(find bpr_description)/urdf/camera.gazebo" />

    <!-- Camera -->
    <link name="camera_link">
        <collision>
            <origin xyz="0 0 0" rpy="0 0 0"/>
            <geometry>
                <box size="${camera_size} ${camera_size} ${camera_size}"/>
            </geometry>
        </collision>

        <visual>
            <origin xyz="0 0 0" rpy="0 0 0"/>
            <geometry>
                <box size="${camera_size} ${camera_size} ${camera_size}"/>
            </geometry>
            <material name="blue"/>
        </visual>

        <inertial>
            <mass value="0.001" />
            <origin xyz="0 0 0" rpy="0 0 0"/>
            <inertia ixx="0" ixy="0" ixz="0" iyy="0" iyz="0" izz="0" />
        </inertial>
    </link>

    <joint name="camera_joint" type = "fixed">
        <axis xyz = "0 0 1" />
        <origin xyz = "0 0 1" rpy = "0 -1.5 0" />
        <parent link = "link_3" />
        <child link = "camera_link" />
    </joint>
</robot>
