<?xml version = "1.0" ?>

<robot xmlns:xacro = "http://www.ros.org/wiki/xacro">
    <xacro:macro name = "x_joint" params = "name type axis_xyz origin_rpy origin_xyz parent child">
        <joint name = "${name}" type = "${type}">
            <axis xyz = "${axis_xyz}" />
            <limit effort="1000.0" lower="-3.14" upper="3.14" velocity="0.5" />
            <origin rpy = "${origin_rpy}" xyz = "${origin_xyz}" />
            <parent link = "${parent}" />
            <child link = "${child}" />
        </joint>
    </xacro:macro>

    <xacro:macro name = "x_link_cylinder" params = "name origin_xyz origin_rpy radius length mass ixx ixy ixz iyy iyz izz">
        <link name = "${name}">
        <inertial>
            <mass value="${mass}" />
            <origin rpy="${origin_rpy}" xyz="${origin_xyz}" />
            <inertia ixx="${ixx}" ixy="${ixy}" ixz="${ixz}" iyy="${iyy}" iyz="${iyz}" izz="${izz}" />
        </inertial>
        <collision>
            <origin rpy="${origin_rpy}" xyz="${origin_xyz}" />
            <geometry>
              <cylinder radius="${radius}" length="${length}" />
            </geometry>
        </collision>
        <visual>
            <origin rpy = "${origin_rpy}" xyz = "${origin_xyz}" />
            <geometry>
                <cylinder radius = "${radius}" length = "${length}" />
            </geometry>
        </visual>
        </link>
    </xacro:macro>

    <xacro:macro name = "x_link_box" params = "name origin_xyz origin_rpy size mass ixx ixy ixz iyy iyz izz">
        <link name = "${name}">
        <inertial>
            <mass value="${mass}" />
            <origin rpy="${origin_rpy}" xyz="${origin_xyz}" />
            <inertia ixx="${ixx}" ixy="${ixy}" ixz="${ixz}" iyy="${iyy}" iyz="${iyz}" izz="${izz}" />
        </inertial>
        <collision>
            <origin rpy="${origin_rpy}" xyz="${origin_xyz}" />
            <geometry>
                <box size="${size}" />
            </geometry>
        </collision>
        <visual>
            <origin rpy = "${origin_rpy}" xyz = "${origin_xyz}" />
            <geometry>
                <box size = "${size}" />
            </geometry>
        </visual>
        </link>
    </xacro:macro>
    
</robot>